S02700006578616D706C65732F7374616E64616C6F6E652F68656C6C6F5F776F726C642E737265637C
S3150C100000F8402DE90050A0E10100A0E10160A0E14B
S3150C100010620000EB0610A0E37C009FE50040A0E315
S3150C1000202F0000EB74709FE5230000EB0010A0E18D
S3150C1000306C009FE52A0000EB68009FE5280000EB9A
S3150C10004064009FE50510A0E1250000EB050054E1C6
S3150C100050070000CA042196E70410A0E14C009FE5A6
S3150C100060014084E2000052E30720A0011C0000EBC3
S3150C100070F5FFFFEA38009FE5190000EB120000EBC4
S3150C100080000050E3FCFFFF0A0D0000EB24009FE577
S3150C100090130000EB0000A0E3F880BDE8CB01100CB8
S3150C1000A0C401100CEB01100C0902100C1602100CEA
S3150C1000B02102100C3202100C4B02100C64C099E584
S3150C1000C000F09CE564C099E504F09CE564C099E5E4
S3150C1000D008F09CE564C099E50CF09CE564C099E5C4
S3150C1000E010F09CE564C099E514F09CE564C099E5A4
S3150C1000F018F09CE564C099E51CF09CE564C099E584
S3150C10010020F09CE564C099E524F09CE564C099E563
S3150C10011028F09CE564C099E52CF09CE564C099E543
S3150C10012030F09CE564C099E534F09CE564C099E523
S3150C10013038F09CE564C099E53CF09CE564C099E503
S3150C10014040F09CE564C099E544F09CE564C099E5E3
S3150C10015048F09CE564C099E54CF09CE564C099E5C3
S3150C10016050F09CE564C099E554F09CE564C099E5A3
S3150C10017058F09CE564C099E55CF09CE564C099E583
S3150C10018060F09CE564C099E564F09CE564C099E563
S3150C10019068F09CE564C099E56CF09CE51EFF2FE1B8
S3150C1001A014309FE50010A0E310209FE5020053E1E8
S3150C1001B00110C334FCFFFF3A1EFF2FE15082100CC6
S3090C1001C05082100C2B
S3150C1001C43C4E554C4C3E004578616D706C65206503
S3150C1001D4787065637473204142492076657273692D
S3150C1001E46F6E2025640A0041637475616C20552D5D
S3150C1001F4426F6F74204142492076657273696F6E33
S3150C1002042025640A0048656C6C6F20576F726C64F9
S3150C1002140A0061726763203D2025640A00617267C7
S3150C100224765B25645D203D20222573220A004869DD
S3150C1002347420616E79206B657920746F20657869EA
S30F0C10024474202E2E2E20000A0A003C
S7050C100000DE
